{
  "result": {
    "type": "vertical",
    "header": {
      "type": "symmetry_test",
      "args": [
        {
          "type": "var",
          "value": "y"
        }
      ],
      "localizedText": {
        "locale": "en",
        "text": "Test for symmetry about the ARG1-axis"
      }
    },
    "solution": {
      "type": "localized_text",
      "children": [
        {
          "type": "text_key",
          "value": "symmetric_not_about_axis"
        },
        {
          "type": "string",
          "value": "en"
        },
        {
          "type": "string",
          "value": "Not symmetric about the ARG1-axis"
        },
        {
          "type": "var",
          "value": "y"
        }
      ]
    },
    "steps": [
      {
        "headers": [
          {
            "type": "sub_msg",
            "args": [
              {
                "type": "var",
                "value": "x"
              },
              {
                "type": "negative",
                "children": [
                  {
                    "type": "var",
                    "value": "x"
                  }
                ]
              }
            ],
            "localizedText": {
              "locale": "en",
              "text": "[Substitute|239b2764-445f-4fc1-9852-bbeb8f6c9482] ARG2 for ARG1"
            }
          }
        ],
        "substeps": [
          {
            "left": {
              "type": "equals",
              "children": [
                {
                  "type": "add",
                  "children": [
                    {
                      "type": "sub",
                      "children": [
                        {
                          "type": "pow",
                          "children": [
                            {
                              "type": "var",
                              "value": "x",
                              "color": 0
                            },
                            {
                              "type": "const",
                              "value": "2"
                            }
                          ]
                        },
                        {
                          "type": "muli",
                          "children": [
                            {
                              "type": "const",
                              "value": "5"
                            },
                            {
                              "type": "var",
                              "value": "x",
                              "color": 0
                            }
                          ]
                        }
                      ]
                    },
                    {
                      "type": "muli",
                      "children": [
                        {
                          "type": "const",
                          "value": "3"
                        },
                        {
                          "type": "var",
                          "value": "y"
                        }
                      ]
                    }
                  ]
                },
                {
                  "type": "const",
                  "value": "20"
                }
              ]
            },
            "right": {
              "type": "equals",
              "children": [
                {
                  "type": "add",
                  "children": [
                    {
                      "type": "sub",
                      "children": [
                        {
                          "type": "pow",
                          "children": [
                            {
                              "type": "bracket",
                              "children": [
                                {
                                  "type": "negative",
                                  "children": [
                                    {
                                      "type": "var",
                                      "value": "x",
                                      "color": 0
                                    }
                                  ],
                                  "color": 0
                                }
                              ],
                              "color": 0
                            },
                            {
                              "type": "const",
                              "value": "2"
                            }
                          ]
                        },
                        {
                          "type": "mul",
                          "children": [
                            {
                              "type": "const",
                              "value": "5"
                            },
                            {
                              "type": "bracket",
                              "children": [
                                {
                                  "type": "negative",
                                  "children": [
                                    {
                                      "type": "var",
                                      "value": "x",
                                      "color": 0
                                    }
                                  ],
                                  "color": 0
                                }
                              ],
                              "color": 0
                            }
                          ]
                        }
                      ]
                    },
                    {
                      "type": "muli",
                      "children": [
                        {
                          "type": "const",
                          "value": "3"
                        },
                        {
                          "type": "var",
                          "value": "y"
                        }
                      ]
                    }
                  ]
                },
                {
                  "type": "const",
                  "value": "20"
                }
              ]
            },
            "description": {
              "type": "symmetric_y",
              "args": [
                {
                  "type": "equals",
                  "children": [
                    {
                      "type": "add",
                      "children": [
                        {
                          "type": "sub",
                          "children": [
                            {
                              "type": "pow",
                              "children": [
                                {
                                  "type": "var",
                                  "value": "x"
                                },
                                {
                                  "type": "const",
                                  "value": "2"
                                }
                              ]
                            },
                            {
                              "type": "muli",
                              "children": [
                                {
                                  "type": "const",
                                  "value": "5"
                                },
                                {
                                  "type": "var",
                                  "value": "x"
                                }
                              ]
                            }
                          ]
                        },
                        {
                          "type": "muli",
                          "children": [
                            {
                              "type": "const",
                              "value": "3"
                            },
                            {
                              "type": "var",
                              "value": "y"
                            }
                          ]
                        }
                      ]
                    },
                    {
                      "type": "const",
                      "value": "20"
                    }
                  ]
                },
                {
                  "type": "var",
                  "value": "y"
                },
                {
                  "type": "negative",
                  "children": [
                    {
                      "type": "var",
                      "value": "x"
                    }
                  ]
                },
                {
                  "type": "var",
                  "value": "x"
                }
              ],
              "localizedText": {
                "locale": "en",
                "text": "To test if the graph of ARG1 is [symmetric|0a3d64a1-4ec0-4a65-88d0-43a92d0cf617] about the ARG2-axis, substitute ARG3 for ARG4"
              }
            }
          }
        ]
      },
      {
        "headers": [
          {
            "type": "sign_find_short",
            "args": [],
            "localizedText": {
              "locale": "en",
              "text": "Determine the sign"
            }
          },
          {
            "type": "multiply",
            "args": [],
            "localizedText": {
              "locale": "en",
              "text": "Multiply"
            }
          }
        ],
        "substeps": [
          {
            "left": {
              "type": "equals",
              "children": [
                {
                  "type": "add",
                  "children": [
                    {
                      "type": "sub",
                      "children": [
                        {
                          "type": "pow",
                          "children": [
                            {
                              "type": "bracket",
                              "children": [
                                {
                                  "type": "negative",
                                  "children": [
                                    {
                                      "type": "var",
                                      "value": "x"
                                    }
                                  ],
                                  "color": 0
                                }
                              ]
                            },
                            {
                              "type": "const",
                              "value": "2",
                              "color": 0
                            }
                          ]
                        },
                        {
                          "type": "mul",
                          "children": [
                            {
                              "type": "const",
                              "value": "5"
                            },
                            {
                              "type": "bracket",
                              "children": [
                                {
                                  "type": "negative",
                                  "children": [
                                    {
                                      "type": "var",
                                      "value": "x"
                                    }
                                  ],
                                  "color": 1
                                }
                              ]
                            }
                          ]
                        }
                      ],
                      "color": 1
                    },
                    {
                      "type": "muli",
                      "children": [
                        {
                          "type": "const",
                          "value": "3"
                        },
                        {
                          "type": "var",
                          "value": "y"
                        }
                      ]
                    }
                  ]
                },
                {
                  "type": "const",
                  "value": "20"
                }
              ]
            },
            "right": {
              "type": "equals",
              "children": [
                {
                  "type": "add",
                  "children": [
                    {
                      "type": "sub",
                      "children": [
                        {
                          "type": "pow",
                          "children": [
                            {
                              "type": "var",
                              "value": "x"
                            },
                            {
                              "type": "const",
                              "value": "2"
                            }
                          ]
                        },
                        {
                          "type": "mul",
                          "children": [
                            {
                              "type": "const",
                              "value": "5"
                            },
                            {
                              "type": "bracket",
                              "children": [
                                {
                                  "type": "negative",
                                  "children": [
                                    {
                                      "type": "var",
                                      "value": "x"
                                    }
                                  ],
                                  "color": 1
                                }
                              ]
                            }
                          ]
                        }
                      ],
                      "color": 1
                    },
                    {
                      "type": "muli",
                      "children": [
                        {
                          "type": "const",
                          "value": "3"
                        },
                        {
                          "type": "var",
                          "value": "y"
                        }
                      ]
                    }
                  ]
                },
                {
                  "type": "const",
                  "value": "20"
                }
              ]
            },
            "description": {
              "type": "pow_even",
              "args": [],
              "localizedText": {
                "locale": "en",
                "text": "A negative [base|a544902f-7c94-4a24-b877-099bdd929dd3] raised to an even [power|9983f4f3-2a55-4421-8b1c-8709923404d9] equals a positive [5685bd6d-6963-4464-ac4e-8693b7a298cf]"
              }
            }
          },
          {
            "left": {
              "type": "equals",
              "children": [
                {
                  "type": "add",
                  "children": [
                    {
                      "type": "sub",
                      "children": [
                        {
                          "type": "pow",
                          "children": [
                            {
                              "type": "var",
                              "value": "x"
                            },
                            {
                              "type": "const",
                              "value": "2"
                            }
                          ]
                        },
                        {
                          "type": "mul",
                          "children": [
                            {
                              "type": "const",
                              "value": "5"
                            },
                            {
                              "type": "bracket",
                              "children": [
                                {
                                  "type": "negative",
                                  "children": [
                                    {
                                      "type": "var",
                                      "value": "x"
                                    }
                                  ],
                                  "color": 1
                                }
                              ]
                            }
                          ]
                        }
                      ],
                      "color": 1
                    },
                    {
                      "type": "muli",
                      "children": [
                        {
                          "type": "const",
                          "value": "3"
                        },
                        {
                          "type": "var",
                          "value": "y"
                        }
                      ]
                    }
                  ]
                },
                {
                  "type": "const",
                  "value": "20"
                }
              ]
            },
            "right": {
              "type": "equals",
              "children": [
                {
                  "type": "add",
                  "children": [
                    {
                      "type": "add",
                      "children": [
                        {
                          "type": "pow",
                          "children": [
                            {
                              "type": "var",
                              "value": "x"
                            },
                            {
                              "type": "const",
                              "value": "2"
                            }
                          ]
                        },
                        {
                          "type": "muli",
                          "children": [
                            {
                              "type": "const",
                              "value": "5"
                            },
                            {
                              "type": "var",
                              "value": "x"
                            }
                          ]
                        }
                      ],
                      "color": 1
                    },
                    {
                      "type": "muli",
                      "children": [
                        {
                          "type": "const",
                          "value": "3"
                        },
                        {
                          "type": "var",
                          "value": "y"
                        }
                      ]
                    }
                  ]
                },
                {
                  "type": "const",
                  "value": "20"
                }
              ]
            },
            "description": {
              "type": "mul_neg_neg",
              "args": [
                {
                  "type": "equals",
                  "children": [
                    {
                      "type": "mul",
                      "children": [
                        {
                          "type": "bracket",
                          "children": [
                            {
                              "type": "string",
                              "value": "-"
                            }
                          ]
                        },
                        {
                          "type": "bracket",
                          "children": [
                            {
                              "type": "string",
                              "value": "-"
                            }
                          ]
                        }
                      ]
                    },
                    {
                      "type": "bracket",
                      "children": [
                        {
                          "type": "string",
                          "value": "+"
                        }
                      ]
                    }
                  ]
                }
              ],
              "localizedText": {
                "locale": "en",
                "text": "Multiplying two negatives equals a positive: ARG1 [b7a8d7e0-af3b-4970-aaa8-7dc783c7cab5]"
              }
            }
          }
        ]
      },
      {
        "headers": [
          {
            "type": "symmetric_not_graph",
            "args": [
              {
                "type": "equals",
                "children": [
                  {
                    "type": "add",
                    "children": [
                      {
                        "type": "sub",
                        "children": [
                          {
                            "type": "pow",
                            "children": [
                              {
                                "type": "var",
                                "value": "x"
                              },
                              {
                                "type": "const",
                                "value": "2"
                              }
                            ]
                          },
                          {
                            "type": "muli",
                            "children": [
                              {
                                "type": "const",
                                "value": "5"
                              },
                              {
                                "type": "var",
                                "value": "x"
                              }
                            ]
                          }
                        ]
                      },
                      {
                        "type": "muli",
                        "children": [
                          {
                            "type": "const",
                            "value": "3"
                          },
                          {
                            "type": "var",
                            "value": "y"
                          }
                        ]
                      }
                    ]
                  },
                  {
                    "type": "const",
                    "value": "20"
                  }
                ]
              },
              {
                "type": "var",
                "value": "y"
              }
            ],
            "localizedText": {
              "locale": "en",
              "text": "The graph of ARG1 is not symmetric about the ARG2-axis"
            }
          }
        ],
        "substeps": [
          {
            "left": {
              "type": "equals",
              "children": [
                {
                  "type": "add",
                  "children": [
                    {
                      "type": "add",
                      "children": [
                        {
                          "type": "pow",
                          "children": [
                            {
                              "type": "var",
                              "value": "x",
                              "color": 0
                            },
                            {
                              "type": "const",
                              "value": "2",
                              "color": 0
                            }
                          ],
                          "color": 0
                        },
                        {
                          "type": "muli",
                          "children": [
                            {
                              "type": "const",
                              "value": "5",
                              "color": 0
                            },
                            {
                              "type": "var",
                              "value": "x",
                              "color": 0
                            }
                          ],
                          "color": 0
                        }
                      ],
                      "color": 0
                    },
                    {
                      "type": "muli",
                      "children": [
                        {
                          "type": "const",
                          "value": "3",
                          "color": 0
                        },
                        {
                          "type": "var",
                          "value": "y",
                          "color": 0
                        }
                      ],
                      "color": 0
                    }
                  ],
                  "color": 0
                },
                {
                  "type": "const",
                  "value": "20",
                  "color": 0
                }
              ],
              "color": 0
            },
            "right": {
              "type": "localized_text",
              "children": [
                {
                  "type": "text_key",
                  "value": "symmetric_not_about_axis",
                  "color": 0
                },
                {
                  "type": "string",
                  "value": "en"
                },
                {
                  "type": "string",
                  "value": "Not symmetric about the ARG1-axis"
                },
                {
                  "type": "var",
                  "value": "y",
                  "color": 0
                }
              ],
              "color": 0
            },
            "description": {
              "type": "symmetric_y_not_equivalent",
              "args": [
                {
                  "type": "negative",
                  "children": [
                    {
                      "type": "var",
                      "value": "x"
                    }
                  ]
                },
                {
                  "type": "var",
                  "value": "x"
                },
                {
                  "type": "equals",
                  "children": [
                    {
                      "type": "add",
                      "children": [
                        {
                          "type": "sub",
                          "children": [
                            {
                              "type": "pow",
                              "children": [
                                {
                                  "type": "var",
                                  "value": "x"
                                },
                                {
                                  "type": "const",
                                  "value": "2"
                                }
                              ]
                            },
                            {
                              "type": "muli",
                              "children": [
                                {
                                  "type": "const",
                                  "value": "5"
                                },
                                {
                                  "type": "var",
                                  "value": "x"
                                }
                              ]
                            }
                          ]
                        },
                        {
                          "type": "muli",
                          "children": [
                            {
                              "type": "const",
                              "value": "3"
                            },
                            {
                              "type": "var",
                              "value": "y"
                            }
                          ]
                        }
                      ]
                    },
                    {
                      "type": "const",
                      "value": "20"
                    }
                  ]
                },
                {
                  "type": "var",
                  "value": "y"
                }
              ],
              "localizedText": {
                "locale": "en",
                "text": "After substituting ARG1 for ARG2, the obtained equation is not equivalent to the initial one, so the graph of ARG3 is not [symmetric|0a3d64a1-4ec0-4a65-88d0-43a92d0cf617] about the ARG4-axis"
              }
            }
          }
        ]
      }
    ]
  },
  "info": {
    "solver": {
      "version": "9.0.12",
      "ioVersion": "9.0.0",
      "normalizedInput": {
        "node": {
          "type": "equals",
          "children": [
            {
              "type": "add",
              "children": [
                {
                  "type": "sub",
                  "children": [
                    {
                      "type": "pow",
                      "children": [
                        {
                          "type": "var",
                          "value": "x"
                        },
                        {
                          "type": "const",
                          "value": "2"
                        }
                      ]
                    },
                    {
                      "type": "muli",
                      "children": [
                        {
                          "type": "const",
                          "value": "5"
                        },
                        {
                          "type": "var",
                          "value": "x"
                        }
                      ]
                    }
                  ]
                },
                {
                  "type": "muli",
                  "children": [
                    {
                      "type": "const",
                      "value": "3"
                    },
                    {
                      "type": "var",
                      "value": "y"
                    }
                  ]
                }
              ]
            },
            {
              "type": "const",
              "value": "20"
            }
          ]
        },
        "action": {
          "command": "symmetry_y",
          "args": []
        }
      }
    },
    "animations": {},
    "translator": {
      "locale": "en"
    },
    "nar": {
      "version": "2.0.5",
      "routes": []
    }
  },
  "diagnostics": {
    "solverRequestTime": 1,
    "solverEvaluationTime": 0,
    "translatorRequestTime": 0,
    "translatorEvaluationTime": 0,
    "translatorTotalTime": 0,
    "animationTotalTime": 0,
    "narRequestTime": 0,
    "narEvaluationTime": 0,
    "substepsTotalTime": 0,
    "evaluationTime": 3,
    "pwsRequestTime": 4
  }
}